{
  "categories" : {
    "href" : "https://api.spotify.com/v1/browse/categories?country=SE&locale=sv&offset=5&limit=10",
    "items" : [ {
      "href" : "https://api.spotify.com/v1/browse/categories/chill",
      "icons" : [ {
        "height" : 274,
        "url" : "https://t.scdn.co/media/derived/chill-274x274_4c46374f007813dd10b37e8d8fd35b4b_0_0_274_274.jpg",
        "width" : 274
      } ],
      "id" : "chill",
      "name" : "Chill"
    }, {
      "href" : "https://api.spotify.com/v1/browse/categories/focus",
      "icons" : [ {
        "height" : 274,
        "url" : "https://t.scdn.co/media/original/genre-images-square-274x274_5e50d72b846a198fcd2ca9b3aef5f0c8_274x274.jpg",
        "width" : 274
      } ],
      "id" : "focus",
      "name" : "Fokus"
    }, {
      "href" : "https://api.spotify.com/v1/browse/categories/hiphop",
      "icons" : [ {
        "height" : 274,
        "url" : "https://t.scdn.co/media/original/hip-274_0a661854d61e29eace5fe63f73495e68_274x274.jpg",
        "width" : 274
      } ],
      "id" : "hiphop",
      "name" : "Hiphop"
    }, {
      "href" : "https://api.spotify.com/v1/browse/categories/dinner",
      "icons" : [ {
        "height" : 274,
        "url" : "https://t.scdn.co/media/original/dinner_1b6506abba0ba52c54e6d695c8571078_274x274.jpg",
        "width" : 274
      } ],
      "id" : "dinner",
      "name" : "Middag"
    }, {
      "href" : "https://api.spotify.com/v1/browse/categories/edm_dance",
      "icons" : [ {
        "height" : 274,
        "url" : "https://t.scdn.co/media/derived/edm-274x274_0ef612604200a9c14995432994455a6d_0_0_274_274.jpg",
        "width" : 274
      } ],
      "id" : "edm_dance",
      "name" : "EDM/dance"
    }, {
      "href" : "https://api.spotify.com/v1/browse/categories/rock",
      "icons" : [ {
        "height" : 274,
        "url" : "https://t.scdn.co/media/derived/rock_9ce79e0a4ef901bbd10494f5b855d3cc_0_0_274_274.jpg",
        "width" : 274
      } ],
      "id" : "rock",
      "name" : "Rock"
    }, {
      "href" : "https://api.spotify.com/v1/browse/categories/indie_alt",
      "icons" : [ {
        "height" : 274,
        "url" : "https://t.scdn.co/media/derived/indie-274x274_add35b2b767ff7f3897262ad86809bdb_0_0_274_274.jpg",
        "width" : 274
      } ],
      "id" : "indie_alt",
      "name" : "Indie/Alternativ"
    }, {
      "href" : "https://api.spotify.com/v1/browse/categories/metal",
      "icons" : [ {
        "height" : 274,
        "url" : "https://t.scdn.co/media/original/metal_27c921443fd0a5ba95b1b2c2ae654b2b_274x274.jpg",
        "width" : 274
      } ],
      "id" : "metal",
      "name" : "Metal"
    }, {
      "href" : "https://api.spotify.com/v1/browse/categories/rnb",
      "icons" : [ {
        "height" : 274,
        "url" : "https://t.scdn.co/media/derived/r-b-274x274_fd56efa72f4f63764b011b68121581d8_0_0_274_274.jpg",
        "width" : 274
      } ],
      "id" : "rnb",
      "name" : "R&B"
    }, {
      "href" : "https://api.spotify.com/v1/browse/categories/decades",
      "icons" : [ {
        "height" : 274,
        "url" : "https://t.scdn.co/media/derived/decades_9ad8e458242b2ac8b184e79ef336c455_0_0_274_274.jpg",
        "width" : 274
      } ],
      "id" : "decades",
      "name" : "Årtionden"
    } ],
    "limit" : 10,
    "next" : "https://api.spotify.com/v1/browse/categories?country=SE&locale=sv&offset=15&limit=10",
    "offset" : 5,
    "previous" : "https://api.spotify.com/v1/browse/categories?country=SE&locale=sv&offset=0&limit=10",
    "total" : 32
  }
}